Wallace Multilplier/simulate.log
Vivado Simulator 2019.2
Time resolution is 1 ps
 a : 0  b:  x  product:    0
 a : 0  b:  0  product:    0
 a : 0  b:  1  product:    0
 a : 0  b:  2  product:    0
 a : 0  b:  3  product:    0
 a : 0  b:  4  product:    0
 a : 0  b:  5  product:    0
 a : 0  b:  6  product:    0
 a : 0  b:  7  product:    0
 a : 0  b:  8  product:    0
 a : 0  b:  9  product:    0
 a : 0  b: 10  product:    0
 a : 0  b: 11  product:    0
 a : 0  b: 12  product:    0
 a : 0  b: 13  product:    0
 a : 0  b: 14  product:    0
 a : 1  b: 15  product:   15
 a : 1  b:  0  product:    0
 a : 1  b:  1  product:    1
 a : 1  b:  2  product:    2
 a : 1  b:  3  product:    3
 a : 1  b:  4  product:    4
 a : 1  b:  5  product:    5
 a : 1  b:  6  product:    6
 a : 1  b:  7  product:    7
 a : 1  b:  8  product:    8
 a : 1  b:  9  product:    9
 a : 1  b: 10  product:   10
 a : 1  b: 11  product:   11
 a : 1  b: 12  product:   12
 a : 1  b: 13  product:   13
 a : 1  b: 14  product:   14
 a : 2  b: 15  product:   30
 a : 2  b:  0  product:    0
 a : 2  b:  1  product:    2
 a : 2  b:  2  product:    4
 a : 2  b:  3  product:    6
 a : 2  b:  4  product:    8
 a : 2  b:  5  product:   10
 a : 2  b:  6  product:   12
 a : 2  b:  7  product:   14
 a : 2  b:  8  product:   16
 a : 2  b:  9  product:   18
 a : 2  b: 10  product:   20
 a : 2  b: 11  product:   22
 a : 2  b: 12  product:   24
 a : 2  b: 13  product:   26
 a : 2  b: 14  product:   28
 a : 3  b: 15  product:   45
 a : 3  b:  0  product:    0
